…
  - modify column data types from `character` to `numeric` and `Date`
  - modify column names
      - make them more descriptive
      - to `snake_case` from `camelCase`

Users can retain the names and format as returned by NSE using the
`clean_names` argument and setting it to `FALSE`.

### Index

##### Fetch Indices Quote

``` r
nse_index_quote()
#> # A tibble: 55 x 4
#>    index_name        last_traded_price change percent_change
#>    <chr>                         <dbl>  <dbl>          <dbl>
#>  1 NIFTY 50 Pre Open           12079.   86.0            0.72
#>  2 NIFTY 50                    12053.   59.9            0.5 
#>  3 NIFTY NEXT 50               28101.  206.             0.74
#>  4 NIFTY100 LIQ 15              3743.   10.3            0.28
#>  5 NIFTY BANK                  31399.  162.             0.52
#>  6 INDIA VIX                      14.6  -0.23          -1.53
#>  7 NIFTY 100                   12155.   64.4            0.53
#>  8 NIFTY 500                    9805.   58              0.6 
#>  9 NIFTY MIDCAP 100            17022.  117.             0.69
#> 10 NIFTY MIDCAP 50              4675.   35.4            0.76
#> # ... with 45 more rows

# retain original column names as returned by NSE
nse_index_quote(clean_names = FALSE)
#> # A tibble: 55 x 4
#>    name              lastPrice change pChange
#>    <chr>                 <dbl>  <dbl>   <dbl>
#>  1 NIFTY 50 Pre Open   12079.   86.0     0.72
#>  2 NIFTY 50            12053.   59.9     0.5 
#>  3 NIFTY NEXT 50       28101.  206.      0.74
#>  4 NIFTY100 LIQ 15      3743.   10.3     0.28
#>  5 NIFTY BANK          31399.  162.      0.52
#>  6 INDIA VIX              14.6  -0.23   -1.53
#>  7 NIFTY 100           12155.   64.4     0.53
#>  8 NIFTY 500            9805.   58       0.6 
#>  9 NIFTY MIDCAP 100    17022.  117.      0.69
#> 10 NIFTY MIDCAP 50      4675.   35.4     0.76
#> # ... with 45 more rows
```
…
##### Stocks that have touched their 52 week highs during the day

``` r
nse_stock_year_high()
#> # A tibble: 27 x 10
#>    symbol symbol_desc date       new_high   year last_traded_pri~ prev_high
#>    <chr>  <chr>       <date>        <dbl>  <dbl>            <dbl>     <dbl>
#>  1 AAVAS  Aavas Fina~ 2020-01-03   2079   2079             1970.     2050. 
#>  2 ADANI~ Adani Gree~ 2020-01-06    211.   211.             211.      202. 
#>  3 ALKYL~ Alkyl Amin~ 2020-01-02   1250   1250             1234      1199  
#>  4 ASTER~ Aster DM H~ 2020-01-01    175.   175.             163.      171. 
#>  5 BALRA~ Balrampur ~ 2020-01-02    195    195              186.      189. 
#>  6 BRIGA~ Brigade En~ 2019-11-08    232.   232.             223.      224. 
#>  7 DIXON  Dixon Tech~ 2019-12-27   4315.  4315.            4240      4055  
#>  8 DWARK~ Dwarikesh ~ 2020-01-02     42     42               41.7      39.8
#>  9 EIDPA~ EID Parry ~ 2019-01-16    235    235              230.      233. 
#> 10 GMRIN~ GMR Infras~ 2020-01-03     23.8   23.8             23.2      23.4
#> # ... with 17 more rows, and 3 more variables: prev_close <dbl>,
#> #   change <dbl>, percent_change <dbl>

# retain original column names as returned by NSE
nse_stock_year_high(clean_names = FALSE)
#> # A tibble: 27 x 10
#>    symbol symbolDesc dt          value   year    ltp value_old   prev
#>    <chr>  <chr>      <date>      <dbl>  <dbl>  <dbl>     <dbl>  <dbl>
#>  1 AAVAS  Aavas Fin~ 2020-01-03 2079   2079   1970.     2050.  1990. 
#>  2 ADANI~ Adani Gre~ 2020-01-06  211.   211.   211.      202.   201. 
#>  3 ALKYL~ Alkyl Ami~ 2020-01-02 1250   1250   1234      1199   1142. 
#>  4 ASTER~ Aster DM ~ 2020-01-01  175.   175.   163.      171.   166. 
#>  5 BALRA~ Balrampur~ 2020-01-02  195    195    186.      189.   183. 
#>  6 BRIGA~ Brigade E~ 2019-11-08  232.   232.   223.      224.   218. 
#>  7 DIXON  Dixon Tec~ 2019-12-27 4315.  4315.  4240      4055   3959. 
#>  8 DWARK~ Dwarikesh~ 2020-01-02   42     42     41.7      39.8   38.4
#>  9 EIDPA~ EID Parry~ 2019-01-16  235    235    230.      233.   224. 
#> 10 GMRIN~ GMR Infra~ 2020-01-03   23.8   23.8   23.2      23.4   22.6
#> # ... with 17 more rows, and 2 more variables: change <dbl>, pChange <dbl>
```
…
# retain original column names as returned by NSE
nse_preopen_nifty(clean_names = FALSE)
#> # A tibble: 50 x 17
#>    symbol series xDt        caAct    iep   chn perChn   pCls trdQnty   iVal
#>    <chr>  <chr>  <date>     <chr>  <dbl> <dbl>  <dbl>  <dbl>   <dbl>  <dbl>
#>  1 SBIN   EQ     NA         <NA>   324.   5.45   1.71  319    119226  387. 
#>  2 VEDL   EQ     NA         <NA>   153.   2.25   1.49  151.    29896   45.7
#>  3 BAJFI~ EQ     NA         <NA>  4055   58.3    1.46 3997.     5803  235. 
#>  4 HDFCB~ EQ     NA         <NA>  1259.  18.0    1.45 1241.    95521 1203. 
#>  5 ZEEL   EQ     NA         <NA>   265    3.5    1.34  262.    37585   99.6
#>  6 INDUS~ EQ     NA         <NA>  1488.  19.0    1.3  1469.     8382  125. 
#>  7 YESBA~ EQ     NA         <NA>    45.7  0.55   1.22   45.2  186780   85.4
#>  8 RELIA~ EQ     NA         <NA>  1519   17.5    1.17 1502.    36027  547. 
#>  9 TITAN  EQ     NA         <NA>  1171.  12.4    1.07 1159.     7974   93.4
#> 10 ICICI~ EQ     NA         <NA>   531.   5.6    1.07  526.    32942  175. 
#> # ... with 40 more rows, and 7 more variables: mktCap <dbl>, yHigh <dbl>,
#> #   yLow <dbl>, sumVal <dbl>, sumQnty <dbl>, finQnty <dbl>,
#> #   sumfinQnty <dbl>
```

### Advances & Declines

``` r
nse_advances_declines()
#> # A tibble: 57 x 4
#>    index_name      advances declines unchanged
#>    <chr>              <dbl>    <dbl>     <dbl>
#>  1 NIFTY 50              33       17         0
#>  2 NIFTY NEXT 50         34       15         1
#>  3 NIFTY IT               8        2         0
#>  4 NIFTY BANK             7        4         1
#>  5 NIFTY MIDCAP 50       36       12         2
#>  6 NIFTY INFRA           18       12         0
#>  7 NIFTY REALTY           9        1         0
#>  8 NIFTY ENERGY           3        7         0
#>  9 NIFTY FMCG            10        5         0
#> 10 NIFTY MNC             19       11         0
#> # ... with 47 more rows

# retain original column names as returned by NSE
nse_advances_declines(clean_names = FALSE)
#> # A tibble: 57 x 4
#>    indice          advances declines unchanged
#>    <chr>              <dbl>    <dbl>     <dbl>
#>  1 NIFTY 50              33       17         0
#>  2 NIFTY NEXT 50         34       15         1
#>  3 NIFTY IT               8        2         0
#>  4 NIFTY BANK             7        4         1
#>  5 NIFTY MIDCAP 50       36       12         2
#>  6 NIFTY INFRA           18       12         0
#>  7 NIFTY REALTY           9        1         0
#>  8 NIFTY ENERGY           3        7         0
#>  9 NIFTY FMCG            10        5         0
#> 10 NIFTY MNC             19       11         0
#> # ... with 47 more rows
```
